voice vignette - The R part
…
# packs
library(voice)

# get path to audio file
path2wav <- list.files(system.file('extdata', package = 'wrassp'),
                       pattern <- glob2rx('*.wav'), full.names = TRUE)

1. Extract features

Examples

# minimal usage
M <- extract_features(path2wav, verbose = FALSE)
M
#> # A tibble: 2,389 × 61
#>    slice…¹ slice…² wav_p…³    f0    f1    f2    f3    f4    f5    f6    f7    f8
#>      <int>   <int> <chr>   <dbl> <int> <int> <int> <int> <int> <int> <int> <int>
#>  1       1       1 /usr/l…    NA    NA  1863    NA  3087  4218  5233  6144  6643
#>  2       2       2 /usr/l…    NA    NA  1863    NA  3179  4172  5259  6712    NA
#>  3       3       3 /usr/l…    NA    NA  1933  3055  3731  4663  5658  6775    NA
#>  4       4       4 /usr/l…    NA    NA  1777  2791  3712  4690  5657  6602  7771
#>  5       5       5 /usr/l…    NA    NA  1710  2690  3536  4677  5653  6526    NA
#>  6       6       6 /usr/l…    NA    NA  1794  2673  3560  4402  5119  6499    NA
#>  7       7       7 /usr/l…    NA    NA  1873  2665  3640  4346  5164  6516    NA
#>  8       8       8 /usr/l…    NA    NA  1932  2684  3550  4304  5190  6518    NA
#>  9       9       9 /usr/l…    NA   148  1960  2648  3248  3640  5214  6498  7668
#> 10      10      10 /usr/l…    NA   202  1965  2650  3284  3664  5210  6497  7716
#> # … with 2,379 more rows, 49 more variables: mfcc1 <dbl>, mfcc2 <dbl>,
#> #   mfcc3 <dbl>, mfcc4 <dbl>, mfcc5 <dbl>, mfcc6 <dbl>, mfcc7 <dbl>,
#> #   mfcc8 <dbl>, mfcc9 <dbl>, mfcc10 <dbl>, mfcc11 <dbl>, mfcc12 <dbl>,
#> #   df2 <dbl>, df3 <dbl>, df4 <dbl>, df5 <dbl>, df6 <dbl>, df7 <dbl>,
#> #   df8 <dbl>, pf1 <dbl>, pf2 <dbl>, pf3 <dbl>, pf4 <dbl>, pf5 <dbl>,
#> #   pf6 <dbl>, pf7 <dbl>, pf8 <dbl>, rf1 <dbl>, rf2 <dbl>, rf3 <dbl>,
#> #   rf4 <dbl>, rf5 <dbl>, rf6 <dbl>, rf7 <dbl>, rf8 <dbl>, rcf2 <dbl>, …
…
